{
  "0x594f7f38c97a1847b60001498316b78a23979dc2": 20,
  "0xf6fed9e0c8f2b05e264c381f6fc3e7978291da70": 1,
  "0x: Staking Proxy": 1306,
  "0x6924a03bb710eaf199ab6ac9f2bb148215ae9b5d": 3,
  "Aave: Lending Pool Core": 1254,
  "0xffac71f2395fd2a4d91041f3e2a1b3002eadbb68": 6,
  "0xf9e11762d522ea29dd78178c9baf83b7b093aacc": 3,
  "Maker: Migration": 1,
  "0x0000000000000000000000000000000000000000": 1044,
  "Uniswap: SAI": 1,
  "0x0056d1fd2ca3c0f3a7b6ed6cdd1f1f104b4bf9a9": 1,
  "0x9235fd6839b0d8b2fae8c7008365382da79314e6": 11,
  "0x56178a0d5f301baf6cf3e1cd53d9863437345bf9": 30,
  "0xc8cbaf3570228239bd1401688aed778bf4468cc6": 1,
  "0xcd87b38e8e62c114758283749506643de62f9061": 3,
  "0x998497ffc64240d6a70c38e544521d09dcd23293": 29,
  "0x993dca26bb7c3a86cecb916bd4bf682c616c83cb": 1,
  "CollateralSwap: Alpha": 75,
  "Maker: MCD Join BAT A": 34,
  "CollateralSwap: Deployer": 58,
  "0xe3d9988f676457123c5fd01297605efdd0cba1ae": 1248,
  "Uniswap: BAT": 42,
  "Maker: MCD Join ETH A": 427,
  "0xb5c9dbce29cb425a91438deae444b661cfdd2955": 21,
  "Uniswap: DAI": 413,
  "Compound Dai": 281,
  "0xadeeaec6580d3c0674bd383412186b5fe6411bd5": 7,
  "0x01b1b62f15c8fb5a87a27fbac7b85c33bbc48844": 3,
  "Compound Ether": 68,
  "0x20a1d01e03d65495ae157d47e4519eceacb608f6": 2,
  "0x8ac1501062fa080b2ee0bee4097383ad165b3cba": 6,
  "0xdff2aa5689fcbc7f479d8c84ac857563798436dd": 140,
  "Kyber: Contract 2": 389,
  "Kyber: Reserve 1": 77,
  "1Split: Deployer": 2,
  "0x3ab6564d5c214bc416ee8421e05219960504eead": 43,
  "0xd3ec78814966ca1eb4c923af4da86bf7e6c743ba": 10,
  "0xe03374cacf4600f56bddbdc82c07b375f318fc5c": 10,
  "0x06f7bf937dec0c413a2e0464bb300c4d464bb891": 11,
  "0x4d4fdd2f9ed08d8d9aaaa210827abf10ca408065": 6,
  "0x4d37f28d2db99e8d35a6c725a5f1749a085850a3": 35,
  "0xc9a4aef09fd9ae835a0c60a0757c8dd748116781": 3,
  "0xb070ce4846575e283612d8469f54ef8c1225a4b3": 6,
  "0x9c351fbf025ac6adfecc260696b0c744c03c36f5": 12,
  "0x66666600e43c6d9e1a249d29d58639dedfcd9ade": 10,
  "0x7778d1011e19c0091c930d4befa2b0e47441562a": 50,
  "0x954e0070e1281b470810fe5b29aa2a26a7450a9c": 82,
  "0x985bcf66cc78f67316b50f233dcb35aaa539b219": 20,
  "0xd6ea703c547232b54fa83e62d7b0cd3086b1876c": 12,
  "0x4e007a005d4d80befe82f51d81609a7c0a4174c0": 7,
  "0xeb91a27e79bddbac9569d512f15064c8466883da": 52,
  "0x666132cd7fc8c2611225163f85e7b45d7c9ddbdd": 2,
  "0xadeeb9d09b8bcee10943198fb6f6a4229bab3675": 50,
  "Bancor: ETH Token": 8,
  "0xc6792effcc13b1137fe65b003c07558a11c3ebfc": 4,
  "0x4bcb9b3bb7189cc784ae5d8d9113c85196f4d4ef": 1,
  "0x998bc53265925b6c8a6e5b2220387b8f67ac16e8": 5,
  "0x261b003777c2797aca986e9b2c3485c5511863cd": 3,
  "0x79cd458da3f350b81a641d5eb210725189c7fb11": 1,
  "0xaf92ae0715911ae4e88b320743558914b195e2e9": 7,
  "0x8b4bddaa976996f3ee6dd07851095351e23ab90d": 1,
  "0xd1c5ab370707461bcf957f457659d6aa72b374bd": 2,
  "0x69b040a89360c58456f0484328d95b736b162621": 5,
  "0xf4d9a2d0075e0f003410ae774456fbeeedd18c72": 1,
  "0x537f25d07455cbdbdd5e16f52b216e814cd1bf7e": 6,
  "0xf797485cc069a3910cd5d0eb5e168eeb9e8b8b1b": 2,
  "0x66e3083d3ce13a3c9ae7e5e8e11e782edf4b94d3": 3,
  "0x0c5302652445215c9e4eb175ad2679c255a095f8": 1,
  "0x1610fd4d3cb98c791d28d1dd51061a3f59968a34": 1,
  "0x9897092389f9fbf5c166e0ee87cb3ab9718359fa": 2,
  "0x3a60c314e72c7423ecde06f362b0817df892f317": 2,
  "0xfe9f6067e021cad4ab3acefc092596bdd402e876": 4,
  "0xb6c9e6a2415ab8d26335498beac8eebed4bb2259": 1,
  "0xaf30dc15c36782a796a91f48305de7b63ac42d17": 7,
  "0xa57bd00134b2850b2a1c55860c9e9ea100fdd6cf": 180,
  "0xb149a9baee39e48822c6bb662f8c985acbd0b48d": 2,
  "0xd54297cc195ec2c50ce1229325b5001e15fbb5d3": 4,
  "0x9fa6e6260e8b3d06776527b94aaa968ad5782330": 1,
  "0xbadd88ca0dd1fd7bce17e38ea9f0bcf71958022d": 1,
  "0x0f01c7a39f3c1f5146e4508dcb35928d8dfded63": 1,
  "0xcf4b6d74bcbe3566e33a36aaa6684c977edd4800": 4,
  "0xd1818a80dac94fa1db124b9b1a1bb71dc20f228d": 1,
  "0x38fd131a3563952dd7afbf835605b6f5ae6acd83": 7,
  "0x236b76e5d51a622923619095bd464fc536b6fd32": 2,
  "0x189ecc863e6b562aeca816044db1c2e830998d7c": 7,
  "0xba333f8ff556bf35d38e102a98daf1c5f6d9d708": 2,
  "0x84e9e32fdcfa86e9c6d9946d586434291c524114": 4,
  "0x681099977c323282bb30be500139b0d9a4f8d9cb": 1,
  "0xa12e5c9aad1ba629438696d1ff9dfa275f41c439": 4,
  "Gitcoin Grants: Chris Blec": 1,
  "0x4614d44189dce23df19c5e7859a139a86293f42d": 13,
  "0x2ca90d7785df8e02451cb7ddf0f6d61b830ab004": 4,
  "0x108a73722089a7861215355a4d3b6a448d9c04ca": 6,
  "0x71ce21a0776df966052cac4fe98d18313dd3c214": 2,
  "0xa6574a3066394614407ccece0ff046359a9c84ad": 1,
  "0x77350c16b5735dfc8f7bae8c2e7e996c12574734": 3,
  "0x626c4cccddd354a61be39041b1a800267e93e85a": 1,
  "0xf75fcd9849d3365d436d0cd889ed500150c9482a": 30,
  "0x1686b8f741d5ab451f3645bfe4e0567b6f5005d8": 6,
  "0x000000aaee6a496aaf7b7452518781786313400f": 2,
  "0x07ab6a35bbb1f1002a3db3747085c6280294f352": 10,
  "0x721f231be210f28ce682e5ebbd694cbedebeaede": 1,
  "0x72f57569da789730c4fbcbcb5c2815780af69f20": 5,
  "0x8313f5713871d11dd86fb9bc00e910cc13a23eec": 1,
  "0x5a7d51991ad1af3ccf10411d320a0decf56b6089": 6,
  "0xb18bf61e0572facc2e741ea2ac2f0ee74fd2ddd2": 1,
  "0x12a0f3999a448379b7e346e0aa3ae4997b6cadfb": 1,
  "0x77b459aad741da6277549cdf87803ccbdacae8fa": 1,
  "0xd4e6b7859681faa285687e8bcd8caaf07f4a6e5c": 8,
  "0x3a5f88157e8c0c08c7fd54224bf3a60ee392564f": 1,
  "0xb175bc2a03f5a817b6817c878562b252a1113421": 5,
  "Uniswap: WBTC": 3,
  "0x301b00d5ee30abec94c6b4a8e1ce5332ab80333d": 15,
  "0x0a80c3c540eef99811f4579fa7b1a0617294e06f": 4,
  "DeFi Saver: Wallet": 1002,
  "0x533344cfdf2a3e911e2cf4c6f5ed08e791f5355f": 3,
  "0x4aa817c6f383c8e8ae77301d18ce48efb16fd2be": 278,
  "0x8f337bd3b7f2b05d9a8dc8ac518584e833424893": 100,
  "0xe3379a1956f4a79f39eb2e87bb441419e167538e": 2,
  "0xcd5f8fa45e0ca0937f86006b9ee8fe1eedee5fc4": 5,
  "0x1e30124fde14533231216d95f7798cd0061e5cf8": 318,
  "0x04f42d7b12de8b4b3c5995d0ecfe50c2e62f8f26": 16,
  "0x82ff91671baa663cdc724e6769b0751daa88b18b": 250,
  "0x11002c5e831592bcad61de6f408de874911a8e76": 1,
  "0xad6a74993201e4a0e43beebf3a8e3fab4c2eda4e": 5,
  "0xfbdd94a2afaf69a89f510d1ab9fdb019670a835c": 1,
  "0xff973848484eb834b54196031e7475e8ddcf4f23": 5,
  "0xf4736618f2782b662304b7340084a6bc6ddb5c2c": 1,
  "0x879ce953e9318d93fc9450c3d4f5c5b5174cc094": 4,
  "0xf4c60d107d0201fe033e818e8e5d5c2b08c84374": 1,
  "0x8aaa0d145376ca595364a0ae6d2838ab9677c761": 196,
  "0x7cb440dca092a32f2f0f7f55866477ee26d5c904": 13,
  "0x924d2243b210c7847b27f787edd2ad32054b7d1e": 4,
  "0x9b9b0b10294411cd80a579292d00226e8dcdc714": 3,
  "Kyber: Reserve Uniswap": 92,
  "0x3a58cfeea62ca521645ca187c73ff380bc343e58": 12,
  "0x575e3fa1608ec75e20d91b383f15186d1228fe98": 4,
  "0xe776abe0fb000362705bd2f4b84c520643d25245": 16,
  "0x835c5773386292f16fa63d404d2e09a2f16f9c08": 2,
  "0xcb0c7c757c64e1583ba5673de486bde1b8329879": 1,
  "0x310e5e65a7ba1162f0bf370daef0c22767817e3c": 6,
  "Lendf.Me": 3,
  "0x90c40aad76721d98614279866b944b5a013f2ef9": 4,
  "dForce: Stablecoin Pool": 4,
  "0x1cd919e5625a2604107f20f60ace89a3f7f52916": 3,
  "0x4a40e91175fa2f7dd8ae444596c7f5c98c4eac8b": 18,
  "0xcb5e10e93a4281de367e3d301ad8761488cff609": 1146,
  "0x6c0d86058974c7a1216c778904a676371969b772": 1,
  "0xd0ee54a9d1e9659fc4cfa33373bc99cc99924c06": 46,
  "0x991c745401d5b5e469b8c3e2cb02c748f08754f1": 341,
  "0x3ed5b054d3fa43307de272a2b0b1b2c4a94bd98d": 4,
  "0xa3c1c91403f0026b9dd086882adbc8cdbc3b3cfb": 12,
  "0x9b289d397bfe1c1d5e89ddfc8512a5c88f48a832": 1,
  "0xc59b83ff69f2c02f53d0a29aaa28b4a896d9e76e": 1,
  "0x30049611f422fb25b7251005006d3be8daaf1dc1": 6,
  "0x087cd25a3d58a8cc316303fabac1f89b079c20a8": 2,
  "0x72112e0b260e200e423367c074ba77493a09103d": 2,
  "0x9651e25a28c7d356db9b044e344f72781b3cdcba": 1,
  "0x36691c4f426eb8f42f150ebde43069a31cb080ad": 221,
  "0x12f3088146417e47880d86ebaf1026834629bd85": 2,
  "0x42a2d7042538fedc3ca98c7deaa6ae18733b8621": 1,
  "0xfe20b133167caae3940d89927f772a68adca8f36": 3,
  "0x6d0984e80a86f26c0dd564ca0cf74a8e9da03305": 12,
  "0xb5fc9eef8f391051ecfc1c7d71d617181a56539b": 2,
  "0xa4da0f347c6abe0e8bc71b5981fd92b364eda4c2": 8,
  "0x483b2dc76a15d596bf779b09e36aad05939fc492": 1,
  "0xf2031b3a119e93c5d13b3b0d1af6251e5aebe735": 1,
  "0x267678e6abe1eec35f8f589731618a03a6ca8a7d": 6,
  "0xc529bbb287c79ca3f347a5b7008157bb90cc17b5": 2,
  "0x6425bb021dabd5d6b443a1ab47b003a1b7a27d4b": 5,
  "0xb0dd0dcada73b715e3b5567ab17bd7f37216a637": 5,
  "0x1c29670f7a77f1052d30813a0a4f632c78a02610": 66,
  "0x1e158c0e93c30d24e918ef83d1e0be23595c3c0f": 46,
  "0x334ff7580ee92bb13d744cd309925560877122a1": 3,
  "0x9a7b483489ecc9c2902bcf02d3d77cdc7618867e": 1,
  "0x61493b7b238732408399816dad81af454e5ab709": 5,
  "0x206086773f541a810d91bba403b86cd473e39dfd": 1,
  "0x582033a111659f5d733f855b8377c42984ec2beb": 1,
  "0x4c46f9a3da4f7f2911e29dae334ebcf09101a669": 1,
  "0x1889c8ca2673e0963f734f4802bcab79984c1654": 1,
  "0xb435871b0959561226b4d903b1abf79528177e81": 1,
  "0xe5ef548019d63ba5f9e6d061f7c4bd8ec1ebbd77": 14,
  "0x59e44d8b4c583e15dd7c9d2b2e7c1fc76108c816": 4,
  "0x15dd3ed6af21d714ee15d3b7a4a9aec21b92fd95": 39,
  "0x2a9ac1cab57d80e5e3c4574330863d54ae311c68": 2,
  "0x008ca3a9c52e0f0d9ee94d310d20d67399d44f6c": 2,
  "0x810e5d9e59afccf5668f633d129a2b556fbb40fb": 3,
  "0xd09f40a734bcb57714915e90c49e4e73086bb3ea": 1,
  "0x0e0ec712b3912b5601216455a158cf18152cb62a": 4,
  "0x79dbd1baf124edd4205b2aba56c29bf3914c8ed0": 3,
  "0x1f487a4435f3b730d742aa4b6ef8c9e0a6b9a027": 17,
  "0xb8d570422c91e7be1e6d2ebcc2f55ed5ce02837b": 1,
  "0x4e4da597dbd86a2d6ce8828711ef2f1f6cae9da9": 1,
  "0xafe2b51592b89095a4cfb18da2b5914b528f4c01": 1,
  "0x813ab7e449ca968687476ccd8b31f282a4db59ea": 2,
  "0x7d6149ad9a573a6e2ca6ebf7d4897c1b766841b4": 7,
  "0x50697a37cb09c2b129b7e5322996d5edfa1531f2": 1,
  "0xfc689e70d3a351a56738a92f104a0dd051bf5f7b": 1,
  "0x2075fd8f519895e488fd3b3dab1d41381a1d9ab1": 2,
  "0x21c5733356f4ff00f45192081dd3d0c811a9d784": 1,
  "0x25599dcbd434af9a17d52444f71c92987fa97cfc": 4,
  "0xff09896b686a215b61dc9187238426f871929f42": 1,
  "0xa333e7a5a85f5022bc58c2f299765134b927c163": 1,
  "0xecc996953e976a305ee585a9c7bbbcc85d1c467b": 14,
  "0xd6838e2c56d038c4197240aec30fd00c5e7d43b1": 2,
  "0x31023c43f09f35ebaf044a166ea74208d97c30e9": 1,
  "0xe1b9347b10859ad073f65fa0bcc217efcd9d9fbd": 1,
  "0xf63246f4df508eba748df25daa8bd96816a668ba": 23,
  "0xa0574092703a53e46b17922e47880d3795682e88": 1,
  "0xcbb52e42c56cb908b1372ea91da5f10747413c2f": 1,
  "0xf7801b408c5e3d352e9d67ee2774ae82800bc2d7": 1,
  "0xfaa0a5f1515eec4bba6feec1a69899c92387ff48": 1,
  "0x0379dd3643afb397b1027d60c9102b0515ff5735": 2,
  "0x0cafc1ade6ce6607e12918d5fc5decc715879a3e": 1,
  "0xaeab8114f8920a0522f422618c5b9a2c618527c3": 1,
  "0x33d73575962c84084abd1016de0cb5bf448d2c66": 5,
  "0xf7c751457363e84f5fda68e527b318468f334cec": 2,
  "0x0ace9619e247e790443ad2fe90137fd3657a9ad1": 1,
  "0xdb90b2acb75134853d587fcbfe90be39542c4b20": 3,
  "0x794d81423010fa1f2c2349bd719e5deb8a6fcc73": 1,
  "0x828ddd0ca27b355d8b98b1cfe2ff5fb75bcfde8c": 1,
  "0xac3e2b760232a413171d539c78008cdb7c18ab52": 1,
  "0xd404e9e88d6ffffa8d92cb20415cd73919c2ead6": 2,
  "0x2c3dd65e94f97b2a25239eddffd2e192c08769b8": 1,
  "0x57ef012861c4937a76b5d6061be800199a2b9100": 5,
  "0x40c9ab8ae6ea9acca6ca92bf49ef89f7ac40d058": 2,
  "0x1e574b985cab7fe2cd329eaa354cb052abd74f9c": 1,
  "0x39b8e8bc30bb95bdf45a623d5f6fbf2c47785a41": 2,
  "0x6c2d992b7739dfb363a473cc4f28998b7f1f6de2": 1,
  "0x0402e3499c80399ca40ef0dafd98f2db6a15300a": 3,
  "0xe4130f9adc5b909513de66a7cd0348c4bd4d1115": 3,
  "0xbc5eea869e6a7a30aa41b3b83111aedf23846e33": 1,
  "0xd9b99266c42d427bb3a64f30a0242bbeb41f6830": 5,
  "0x41b3e65e04f8626c8995dc0f970588c161ddf461": 1,
  "0x36cef04b8fb1679e877499a564b144b8732358fc": 1,
  "0x70927ca3b59a50695fa8c352812590419dcf29b3": 1,
  "0xdfd740e171dd04578caf791b1fd75e2df3639575": 1,
  "0xeb87a46764cede9e32c7ea1feef04cf94fe4a185": 1,
  "0xaf5af40f4927188bf33e1133230febba04f852fe": 1,
  "0x652ff69683e62d57e17094d69ed00f022737ff00": 1,
  "0xbceee9217df85113c2b08335ada30559003981bc": 2,
  "0xba782e9fbac2c7bfc1ce409b3909099b6ed61f80": 1,
  "0xa443db1ac70221d33ea4df5ebfebfa448425cf1f": 1,
  "0x269ea4cd75a8ecabff55e47a34453801e412b991": 1,
  "0xb9e5436ccbc77b8c25a3fdb53273cfde1e85990a": 1,
  "0x4fde55f72247fa5678599b683a669cc6b7227e2e": 1,
  "0xfdfaaf7263485543d1b34ce5136c6a67b2e8a2ef": 1,
  "0x08a884c7971e83e78dd129be9b5e2723f3c43282": 1,
  "0x4ea0d6576e606778cc9dcc329d06ec70c3906cc2": 2,
  "0x18a428ce0c31584a21cf8cefdb8849d8013e1994": 1,
  "0x2781a3ee67dde2f231171efcd8563dba1feee98a": 4,
  "0x37d3c0b9dbf99ecfea7ebb3b1cd3bc89f196af65": 5,
  "0x1929a0454cdd4d925e8fc9b6c366ecd7844866f2": 1,
  "0x6e14a5e11b037fa1c8522cfc70fb9465ce770352": 1,
  "0x2079faa9e9eaf3b011fe0440b97c049ad183d96d": 1,
  "0x6a1db505af6672100db2d296a415b36bfc6f0e04": 1,
  "0xab58779cec2b82a75ffd103fdc88d7e3adb13468": 2,
  "0xa47f63f554d120b1636832f60a8740661fcab6f0": 45,
  "0x1af8477f9d2203826cddbe827e98ae8062e3dfae": 4,
  "Kyber: Reserve WETH": 1,
  "0x924d0812ccfa3811ec185f54803cc2a87e59608d": 1,
  "0x71535aae1b6c0c51db317b54d5eee72d1ab843c1": 2,
  "0xbb2ee13748ce79afa1f201a91b6f4220ec6fdfde": 1,
  "0xbb4895028d28065ac506da479ff37f20cc87adb0": 1,
  "0x0412ed8438b5fae246606909ef8ba365f9103783": 3,
  "0xa38da4974b594204b73581ac5fbc1ebee54ca4e0": 1,
  "0x3f3e305c4ad49271ebda489dd43d2c8f027d2d41": 1,
  "0x6365ca7eeac872310727dacebfd5c31fe9ebacea": 1,
  "0xe0d5224bc6560310260b50dbdcec3e6ae130a6b5": 1,
  "0x35ffc49e7fefc188dff81db3c717db098294bc23": 1,
  "0xfd840bdbf7a8866e1e9f5dc717cc9909343aa70d": 1,
  "0xaaa5f347e3a947475097824312c13c2b7121bd5f": 1,
  "0xe8298160c9e8cabd8f2711b92529e0afe8fb01fb": 1,
  "0x7f7c311ad65e56eede7238258f5847133a06ebea": 1,
  "0x08da9920008fe5e669d9b77ce496ff5123a6bdf1": 1,
  "0xf44b52c11b1c800722e8fdf4aa7f3076339e73c4": 1,
  "0x4e2e0372f4a6856c3a617c318cf2154bbf884438": 8,
  "0xb400cd43dc25db30c07e665903a052ac120c30ad": 1,
  "Curve.fi: TUSD USDT USDC DAI": 399,
  "iearn: yUSDC Token": 61,
  "iearn: yTUSD Token": 2,
  "0x4a56916c14e98bcee70c4dcf828b305064e4c5e8": 1,
  "0x6d88b1f66bcf2c57472b4a36be833e708c6502af": 1,
  "0x539efb706852838c51905d3d31966c296e034000": 1,
  "0xd642305ed462cf2ad2a5f0310e30f66bcd1f0f0b": 153,
  "0x8c117a0661568a6189dc65a53a5e1cc2312a22a3": 1,
  "0x3a33fc67918a5b46e67b9cd31fad17e083085239": 17,
  "0x6dc7950423ada9f56fb2c93a23edb787f1e29088": 408,
  "0xa2b47e3d5c44877cca798226b7b8118f9bfb7a56": 546,
  "Compound USD Coin": 192,
  "0x79a8c46dea5ada233abaffd40f3a0a2b1e5a4f27": 87,
  "0x26ea744e5b887e5205727f55dfbe8685e3b21951": 12,
  "0x7df9964cad51486eb16e6d3c9341d6eed73de69d": 347,
  "0x4d4fc2b1d694d3d7647443b79a7efd3bf4efdb41": 8,
  "0xc2cb1040220768554cf699b0d863a3cd4324ce32": 21,
  "0xdeca028ac46b9ff696d7153cd7bedb4711f23981": 62,
  "0x000000f15851d0875e878a83451163999bf5da51": 453,
  "iearn: yDAI Token": 76,
  "0xb7b9a9cf4bc8fe12922147e9e9682ae949bce220": 24,
  "Uniswap: MKR": 1,
  "0xc16f74b07e2409e869bae5de01b2265fe32d64e6": 1,
  "0x26f39ba401c8bdc9889585c07ba3e9f7c6d2a7ca": 82,
  "0xa41a2355f46084096eb6394d51f9e3b04c444599": 3,
  "CollateralSwap: Core Alpha v0.2": 122,
  "0xfe29edc9a278c267f22713d6bca8fbb002c3d30c": 2,
  "0x6bc00a8af5c8a6aaed49a7a37b8d7f8b9970f070": 14,
  "0xa191e578a6736167326d05c119ce0c90849e84b7": 45,
  "0xeb423dcc9b346ee4ddd3a9273854d22599566a3f": 1,
  "0x1d92ed2c7cb9bb19c654dcec059d043856b601e4": 1326,
  "0xc20a16c2a0b681fa9dea8dce49aff9d3a3488bfa": 2,
  "0x2b13de00480d1e9edd45b7fa67387098964f6b94": 3,
  "0x1384d4b47049d6e00e2fd104723f560cd673c7f1": 46,
  "Uniswap: USDC": 30,
  "Uniswap: sUSD": 1,
  "0xc6bbfe0ce06f85ed6edbfd015cd5920e17b128da": 1,
  "0x7cd860672c477e4c312cdde6f922c51235caf52d": 2,
  "0xd442f04f748862e211425993a76d6eafe184110a": 1,
  "0xd7cf8f141b0f4fb8721da29bf6bb9d78caf54b07": 1,
  "0xf48ddbc588ddd846e3aaaf0f346bd75cd8beba78": 1,
  "0x7d8aa1e702a60b33cfcfc0c6b58cc01ff97f7b06": 14,
  "0x586e32930ac05127de429bd566eaa2758fcbd9bc": 10,
  "0x07eb93cb3a9085c72f2e016a822c867e6e5fde33": 1,
  "0xeba7b21efdda318e2fcade7083a615ebfc819353": 1,
  "0xf1381c649652ca1307c0e793f2455c08c6bb4313": 1,
  "0x1871a438261c0c439f433b208facc468b1cb058b": 4,
  "0xdc88f28ba7198041d66eb2ecb1b43339e65fbb92": 64,
  "0x891f5a171f865031b0f3eb9723bb8f68c901c9fe": 419,
  "0xad8c540a8b291529a12bdde08bf352cdcfc76bc4": 5,
  "0xcd3427f90834a0ddc0de376100451f61e569e4a9": 18,
  "0xd57153eb06d16bf1a0c555974af38714249af3c5": 2,
  "0x08b38c870d58e0f1d05e6fae856c7aff4c8f96c9": 1,
  "0x9d11b1e1445b017902e561ceb201f009b3d53a42": 3,
  "0x6edd0714a1e44b38ada471a18a63b9d04a8d606a": 2,
  "0x036a24ee3e1fb7aa7eb34be000a6195d1d25123e": 1,
  "0x0308acc5edf725dc6ba65eadf24cbc8353a3b37b": 1534,
  "0x01920319ae44abdf5a8de2b6f0405e65e2ad3d41": 20,
  "0x4bb9a1e3ba4aee6f6bb76de1384e7417fd2c9dc2": 2,
  "0x9799b475dec92bd99bbdd943013325c36157f383": 3,
  "0x991be34139f9f3980c45332cde070bf87dc9c3b6": 7,
  "0x96a1a98db580d6e9d5f91b51c9853a03c2fabe8e": 5,
  "0x68a17b587caf4f9329f0e372e3a78d23a46de6b5": 1,
  "0xa9ddc3383ab709ea54ab5b4f9f89f57e60eb2f4f": 13,
  "0xa153189f1939bd32b0eacb0b9708e223d0038f50": 2,
  "0x86e132932566fb7030eef19b997c8797de13cfbd": 104,
  "0xc8f1d54d68cb83b353d80db5ccf174dbb1a3c96a": 156,
  "0x010afb8548a5d1a3a3d62f58ca0a5a1329974206": 1,
  "0xdd707b0804192bc625dd3320bf49c0f354d2a533": 10,
  "0xbc8071b59dec84c7babe088d924a7509f3f0d70e": 8,
  "0x50befef9274517a9d1efba3aa8c60cc10c1a7d91": 2,
  "0xdad4c11e8cc6a5c37808d3b31b3b284809f702d1": 1,
  "0xd1a5551a4620bd45a4d985d197404a38e317a53a": 2,
  "0xbc472bac84c00f0e4c8fdc8e04c52146079f506d": 2,
  "0x528667a0ac74db7b2230e69d6bc03f443b75c6e4": 4,
  "0x8ba5a5321418b41d3b84841ff871e7276494e4eb": 1,
  "0x1cf6ccc7e15d0d99a9498f37e16ba65b5c54bdd0": 268,
  "0xc9cfc8c25739e04905235b995407d7cb5734df5c": 1,
  "0x4f2604aac91114ae3b3d0be485d407d02b24480b": 2,
  "0x8d33d3f0079176d93b34bb98831c7112e4d6c71f": 1,
  "0xf8ce4e70f52fddbc72547ce9616ed3e7d4525e8a": 3,
  "0x5778f2824a114f6115dc74d432685d3336216017": 1,
  "0x47dbb61b56c37dd47f4f208ad693062b78e4c958": 1,
  "0x711e9d9f85349bca2ab380d22c6f88467336503e": 4,
  "0x5c31c92fc9cd5506998eb1388f1f9d01db67b791": 20,
  "0xc9bff1cc2b76c283a0fa0da30f947723fad3a63a": 2,
  "0x132cd02e566c36976efb327a4301a605747f4b78": 2,
  "0x5100b47908a06e099d5185bf753d033fa2b7ceac": 7,
  "0x575f0f46c427ee49dc1fe04874e661db161ac54e": 1,
  "0x9a0e037bf87fa679ff89dedbd4283692ebbe57f2": 2,
  "0xed6cdff74a01f06b8e0063b7a63ca233e29e311d": 3,
  "0xe579fef3660dcd5477c2f10719eee333c6f954c1": 1,
  "0x19960defaeec540ff91735a1d09275b4ef359c49": 1,
  "0x45d86264d7e87856d558438aeaaf5da5af893af2": 6,
  "0xb1778d05dc0b535d016e7165020e19e5927537e8": 2,
  "0x00e03d8948f99b97ab19fd540dcb150351d35644": 1,
  "0xa1c92525d8b863509ca0a0550ee29e8b95814e1b": 3,
  "0xec430d65a9c205e61e2979f4bbe9ef599aa21215": 1,
  "0x613cf9ed0559af6fcdb1f91406c6b3c821e3552c": 1,
  "0x8c8a8ef98896a2c4120bcb5f9f6c525796d8d4d6": 2,
  "0x29d2b6ce49fe7885fb7a435be6368288cf3f4c6c": 6,
  "0x61a6aee9d7058d36936142bd987a97da4cd05a1b": 1,
  "0x6f6c0194a67c2727c61370e76042b3d92f3ac35e": 1,
  "0x6958f5e95332d93d21af0d7b9ca85b8212fee0a5": 4,
  "0xec4e94d46391a615088a9acf593d765f6ac7ed5f": 19,
  "0x86282134ce9fc4ac724b84b93d6d5b41ce59a40d": 6,
  "0x2702a5a45017f69ab850553d372a1ad85a4bd01d": 28,
  "0x773ccbfb422850617a5680d40b1260422d072f41": 3,
  "0xabccb8f0a3c206bb0468c52ccc20f3b81077417b": 3,
  "Uniswap: ZRX": 1,
  "0x9fcf4fa419747eb1b0b68fafd525a02dc9dcd83e": 4,
  "Compound 0x": 5,
  "0xdeea1ce0a6e5f67dba0d8bf86459c255a1102203": 1,
  "Uniswap: LINK": 1,
  "Compound Basic Attention Token": 8,
  "0xb8639bee91434ff8d27c8b3ce3dda78ab84a3f23": 8,
  "0x311bf6e6b6d416a808adf524b2fba791bf257e19": 3,
  "0xef764bac8a438e7e498c2e5fccf0f174c3e3f8db": 3,
  "0xdc6b04b4e40fde7c0e9ee1171f913febdbb4b88b": 1,
  "0xab70d6768afab3a0cd83db30dff4b9f0c488b5da": 1,
  "0x2ad3a1a49f6952eefcb7879d06475271885b9c06": 3,
  "0x3218bf83f28b983bc97d2ef765639abe523ae865": 1,
  "Compound Augur": 2,
  "Uniswap: REP": 2,
  "0xe4f60f6fe872d5b910e72a11d09cdcf3780d20db": 1,
  "0x8c4adc1589b96d56b7a351e6e500163ae208d53b": 7,
  "0x93cdb0a93fc36f6a53ed21ecf6305ab80d06beca": 1,
  "0x5bf113d0bbb94f1ca7d5048035ab6d54e54f5322": 1,
  "0x45dad31fc4106bf87f1681e0621e21be7bf31469": 2,
  "0xdcd024536877075bfb2ffb1db9655ae331045b4e": 1,
  "0x0281cb81079165ad8ba2e4ec6092ae4f42464e6d": 2,
  "0x1f108597543cc00ae928484c39fac924a4fdd82b": 7,
  "0xe2effffe7fb7015862cbb1958a30967e48030cff": 1,
  "0x7f05b6c79d6bdf2c1658e349ab54c43474903067": 1,
  "0x9e559937abfd76f9efa34e3fa956f1136b9413e7": 13,
  "0xae80dcf8109e2774d38884ece6c11191c7a1c583": 6,
  "0xc6fc3631480c5f12a7ea9aaa35af32fd53976035": 4,
  "0x33f74d6e20df313d22916d8a398de8b818ddc452": 1,
  "0x6b5e2cd96bd6038bf28e10cf21f7e67805259715": 1,
  "0x2b32c3ecaf47ed3ad459565c472182f56414c9b2": 1,
  "0xcaa7e4656f6a2b59f5f99c745f91ab26d1210dce": 1,
  "0x56c3b93143927e79cb48147b5820c10fe9cdca41": 4,
  "0x30bbf27f6c573b91b0b08f60a60bd00c120e59c5": 118,
  "Compound Wrapped BTC": 1,
  "0xb95c18ad925c5f66d7a08817d86ab512aee386f4": 4,
  "0x075f7907520a4c23388ec998841b226cc82f86fc": 1,
  "0x14b16ab34fb80f7bdfd694394600898416a1821c": 1,
  "0x54d7469d03ae24d60094005c2746fa813335bda6": 2,
  "0x844aedb33020b41c1ec400f0d5e410491d7236ec": 2,
  "0x2a2298098e1c134c6829365ec98eefea4266dd65": 1,
  "0x2530183013d1107196b9c67ff3b0970da0d7f157": 1,
  "0x5c264368dff00cb4a6d83695b0a4a1e5bfceb933": 2,
  "0x110666a090343f1ee1b47697630b927c4134b8f7": 1,
  "0x27f553cffd607ccc2348d7b077e62eea0eefcc7f": 1,
  "0x33558c5eae5dec993455a6a6f57a2146b4291724": 1,
  "0xc46d3fb55e61af04c1e0bb1698cdffa39aa4a0f7": 1,
  "0xe95b55fe0a0e4ad9b7dfaeb167e28596a6b85e87": 8,
  "0x75eb6783697732eac6174fdd507048dffc7bddf8": 1,
  "0x50ff7c83b606d0a5a1629b2988946f35022d2a96": 1,
  "0xa11b89cbc82442630fe837c660c3250e0785a36e": 1,
  "0xed81b77e0a1bfe32a6a55e58c1c9cea8355a846c": 1,
  "0xc2de1c6f3340c5b7a3e0a5069396eab51383563b": 2,
  "0x3b96b59e573573ebe25a569c88b2a41ad185732f": 1,
  "0xe843dd3d2a37ae67602a706dc682e018f1fe8aed": 1,
  "0xda5b2cd0d0bb26e79fb3210233ddabdb7de131c9": 1,
  "0xa44ccd91bf53cbaf57f188d95b2107bdc458be93": 3,
  "0x64d04c6da4b0bc0109d7fc29c9d09c802c061898": 6,
  "0x0a236b41add0073df05eac5fc8505ad745c7859d": 6,
  "0x530bf34aa8aebf13a2b8d96263e0ac1ae5743a43": 3,
  "0xab96730d3cea1685dbf7451022826a2a5bd306ff": 2,
  "0x3d522d8e6a010aa0fb5408fb5caab6fbec9d1df9": 1,
  "0x2cf64803b4c1258bcabe4e32505abc6e03d94678": 3,
  "0x1ccd1b13b7473cdcc9b1b858cb813de95b465e79": 2,
  "0xf76ce5b02f9527786f6f0efc6f37aad600f5c54d": 6,
  "0xd91ca561d7d7e4de0c3849e5785732ce0229b3c7": 2,
  "0xa7615cd307f323172331865181dc8b80a2834324": 1,
  "0xae7f08301a0b774b3f9a7f7f3b7e99f1570eb1dc": 1,
  "0x80c9f3ca7ca99e0545a712c9db928124aa23ea70": 1,
  "0x0e5b16e596f0916e8f0796536f55a5bca0503628": 2,
  "0x6d8e08e0124ca9bf0165a123e8c3e2b8648c92f7": 1,
  "0xac40e1028a8df39c6b521c3ba6c805176db807da": 2,
  "0x0427723709c49041787a0d21279b17b4fd4ec890": 3,
  "0x9d9ce33b3fe13fc69e93dc21ed174613282a2f5e": 1,
  "0x27f5eb564baedb169c0c2d3a5ea1d25281d9a5e5": 1,
  "0x9560fc8ba1bc0166d51040cf9beec13ffc8ad7da": 1,
  "0xb98390ee8d9f4da7dc0086ff6e433956b1f8d4c8": 13,
  "0x7bea5b4b041ce17e512362a05e5a932ab0718401": 10,
  "0x0cc632f9d96d37b045bb3f30b3af18d83a9bb205": 1,
  "0x11b1785d9ac81480c03210e89f1508c8c115888e": 1,
  "0x48aaca81c945e1e84da4d662e0de579522bef4c6": 1,
  "0x55b94ccedd5024ec1546b1943fa7dfa9e39195bb": 2,
  "0x1d8f73854489b5736a55290dd462bf2a8b2796ee": 1,
  "0xe155e3571e5a02dd12a8e203bc24d2711741ef27": 1,
  "0x91d6e260a5965a3c33d5bc4bf4adcf96c449ed2e": 1,
  "0xfc39c307a3d8b439af41629fb1fc57dfe1621646": 1,
  "0x79eb85f849bc6768b8558ea532b932a6d430f9f8": 1,
  "0xde1bb901d3546e2fd48c6aaeb17d7dd762966585": 1,
  "0x0102e2f4e5c1544bd1daee8deb44c2c67317aa06": 3,
  "0x78d8b13c004cabd4b112681d6c44d8fb98563f23": 1,
  "0x3ef71b47a6b985f753b02b15b7b64c8985bcc4a8": 1,
  "0x32000b565101e495d6e4b531d8251e0a0b3c7341": 1,
  "0x12f3bae12825c7026bea6569ea6c29fd7f81e2ac": 1,
  "0xb27732feae161e1f42cfcd2b716bbf7f987fb984": 2,
  "0xc586bef4a0992c495cf22e1aeee4e446cecdee0e": 2,
  "0xe784c1dee41596c22c246684f26782a4061d97a9": 1,
  "0x0ccf129f454589e3fd25346cf46719c38286f851": 3
}
